{
  "project_info": {
    "project_number": "121392134102",
    "project_id": "giuaky-flutter",
    "storage_bucket": "giuaky-flutter.appspot.com"
  },
  "client": [
    {
      "client_info": {
        "mobilesdk_app_id": "1:121392134102:android:9dbcee723a9009432a1677",
        "android_client_info": {
          "package_name": "com.example.zingmp3_giuaky"
        }
      },
      "oauth_client": [
        {
          "client_id": "121392134102-vvffs86saj2p9594hurdc35tks8mfd1c.apps.googleusercontent.com",
          "client_type": 1,
          "android_info": {
            "package_name": "com.example.zingmp3_giuaky",
            "certificate_hash": "b4ccfc5ff1c6a56fcd62294be09bb23b40bd1dbb"
          }
        },
        {
          "client_id": "121392134102-ajmv2il9hegnbjm3j9jdv025p5t7k2po.apps.googleusercontent.com",
          "client_type": 3
        }
      ],
      "api_key": [
        {
          "current_key": "AIzaSyBulHq_M3tcfobFLzhedo26o09kowS9trk"
        }
      ],
      "services": {
        "appinvite_service": {
          "other_platform_oauth_client": [
            {
              "client_id": "121392134102-ajmv2il9hegnbjm3j9jdv025p5t7k2po.apps.googleusercontent.com",
              "client_type": 3
            }
          ]
        }
      }
    }
  ],
  "configuration_version": "1"
}